<?xml version="1.0" ?>

<sdf version="1.6">
  <world name="default">

    <include>
      <uri>model://sun</uri>
    </include>
    <include>
      <uri>model://ground_plane</uri>
    </include>
    
     <!-- Environment -->
    <include>
      <name>city_terrain_1</name>
      <pose>
      0
      0
      0.0
      0
      0
      0
      </pose>
      <uri>model://city_terrain</uri>
    </include>

    <include>
      <name>ocean_2</name>
      <pose>
      40
      -20
      -2
      0
      0
      0
      </pose>
      <uri>model://ocean</uri>
    </include>
    
    
    
    <include>
      <name>telephone_pole_240</name>
      <pose>
       0.9
      -3.7
      0.0
      0
      0
      1.57
      </pose>
      <uri>model://telephone_pole</uri>
    </include>
    
    
    <include>
      <pose>0 0 0.33 0 0 0</pose>
      <uri>model://scooby</uri>
    </include>

    <include>
        <pose>9 1.6 0.14 0 0 1.57</pose>
        <uri>model://casual_female</uri>
   </include>
      
  </world>
</sdf>
